############################
#                          #
# CONFIGURATION PARAMETERS #
#                          #
############################


server_name = 'http://dynamine.ibsquare.be'

json_api_key = '09bfd0f5a446f4674b84c312674efffbcae33cf51a0aa65f6a3517d8'

